<svg xmlns="http://www.w3.org/2000/svg" xmlns:xlink="http://www.w3.org/1999/xlink" display="none">
    <symbol id="Welcome" viewBox="0 0 40 40">
        <path class="st0" d="M13.1,28.9c2.3,1.5,4.6,2.3,6.9,2.3s4.7-0.8,6.9-2.3c2.2-1.5,3.6-3.3,4.1-5.2H8.9C9.5,25.6,10.9,27.4,13.1,28.9
            z M7.5,22.5h25c0,2.5-1.3,4.7-4,6.8S23,32.5,20,32.5c-1.9,0-3.8-0.5-5.7-1.4c-1.9-1-3.6-2.2-4.8-3.8S7.5,24.1,7.5,22.5z M27.5,13.1
            c-0.5,0-0.9,0.2-1.3,0.6c-0.4,0.4-0.6,0.8-0.6,1.3s0.2,0.9,0.6,1.3c0.4,0.4,0.8,0.6,1.3,0.6s0.9-0.2,1.3-0.6
            c0.4-0.4,0.6-0.8,0.6-1.3s-0.2-0.9-0.6-1.3C28.4,13.3,28,13.1,27.5,13.1z M27.5,18.1c-0.8,0-1.6-0.3-2.2-0.9s-0.9-1.4-0.9-2.2
            s0.3-1.6,0.9-2.2s1.4-0.9,2.2-0.9s1.6,0.3,2.2,0.9s0.9,1.4,0.9,2.2s-0.3,1.6-0.9,2.2S28.3,18.1,27.5,18.1z M12.5,13.1
            c-0.5,0-0.9,0.2-1.3,0.6s-0.6,0.8-0.6,1.3s0.2,0.9,0.6,1.3c0.4,0.4,0.8,0.6,1.3,0.6s0.9-0.2,1.3-0.6c0.4-0.4,0.6-0.8,0.6-1.3
            s-0.2-0.9-0.6-1.3S13,13.1,12.5,13.1z M12.5,18.1c-0.8,0-1.6-0.3-2.2-0.9c-0.6-0.6-0.9-1.4-0.9-2.2s0.3-1.6,0.9-2.2
            c0.6-0.6,1.4-0.9,2.2-0.9s1.6,0.3,2.2,0.9s0.9,1.4,0.9,2.2s-0.3,1.6-0.9,2.2S13.3,18.1,12.5,18.1z M7.6,32.4
            c3.4,3.4,7.6,5.1,12.4,5.1s8.9-1.7,12.4-5.1c3.4-3.4,5.1-7.5,5.1-12.4s-1.7-8.9-5.1-12.4C29,4.2,24.8,2.5,20,2.5s-9,1.7-12.4,5.1
            S2.5,15.2,2.5,20S4.2,28.9,7.6,32.4z M10,2.7C13,0.9,16.4,0,20,0s7,0.9,10.1,2.7s5.5,4.2,7.3,7.3S40,16.4,40,20s-0.9,7-2.7,10
            s-4.2,5.5-7.3,7.3C27,39.1,23.7,40,20,40s-7-0.9-10.1-2.7c-3.1-1.8-5.5-4.2-7.3-7.3S0,23.6,0,20s0.9-7,2.7-10S6.9,4.5,10,2.7z"/>
    </symbol>
    <symbol id="AboutMe" viewBox="0 0 28.5 38">
        <path class="st0" d="M2.4,35.6h23.8c0-3.3-1.2-6.1-3.5-8.4s-5.1-3.5-8.4-3.5s-6.1,1.2-8.4,3.5S2.4,32.4,2.4,35.6z M14.3,21.4
            c3.9,0,7.3,1.4,10.1,4.2s4.2,6.1,4.2,10.1c0,0.7-0.2,1.2-0.7,1.7c-0.5,0.5-1,0.7-1.7,0.7H2.4c-0.6,0-1.2-0.2-1.7-0.7
            c-0.5-0.5-0.7-1-0.7-1.7c0-3.9,1.4-7.3,4.2-10.1S10.3,21.4,14.3,21.4z M19,11.9V7.1c0-1.3-0.5-2.4-1.4-3.4c-0.9-0.9-2-1.4-3.4-1.4
            s-2.4,0.5-3.4,1.4s-1.4,2-1.4,3.4v4.8c0,1.3,0.5,2.4,1.4,3.4c0.9,0.9,2,1.4,3.4,1.4s2.4-0.5,3.4-1.4C18.5,14.3,19,13.2,19,11.9z
            M14.3,0c2,0,3.6,0.7,5,2.1c1.4,1.4,2.1,3.1,2.1,5v4.8c0,2-0.7,3.6-2.1,5c-1.4,1.4-3.1,2.1-5,2.1s-3.6-0.7-5-2.1s-2.1-3.1-2.1-5V7.1
            c0-2,0.7-3.6,2.1-5S12.3,0,14.3,0z"/>
    </symbol>
    <symbol id="MyInterests" viewBox="0 0 40 40">
        <path class="st0" d="M2.7,16l8.7,8.9l-2,12.5l7.9-4.4c0.7-0.4,1.7-0.6,2.8-0.6s2,0.2,2.8,0.6l7.9,4.4l-2-12.5l8.7-8.9h0l-12-1.9
            L20,2.9l-5.3,11.3L2.7,16L2.7,16z M33.1,37c0.2,1,0,1.7-0.4,2.2s-1,0.8-1.6,0.8c-0.6,0-1.2-0.1-1.6-0.4l-7.9-4.4
            c-0.4-0.2-0.9-0.3-1.6-0.3c-0.7,0-1.2,0.1-1.5,0.3l-8,4.4C9.9,39.9,9.3,40,8.7,40c-0.6-0.1-1-0.3-1.4-0.7C6.8,38.7,6.7,38,6.8,37
            l1.9-11.3l-7.8-7.9c-0.8-0.8-1.1-1.7-0.8-2.6s1-1.5,2.2-1.6L13,11.9l4.8-10.2C18.3,0.5,19.1,0,20,0c0.9,0,1.7,0.5,2.2,1.6L27,11.9
            l10.6,1.6c1.2,0.2,1.9,0.7,2.2,1.6s0,1.8-0.8,2.6l-7.8,7.9L33.1,37z"/>
    </symbol>
    <symbol id="ProfilePhoto" viewBox="0 0 40 40">
        <path class="st0" d="M33.8,12.5c-0.3,0-0.6-0.1-0.9-0.4c-0.3-0.2-0.4-0.5-0.4-0.9s0.1-0.7,0.4-0.9c0.3-0.2,0.5-0.4,0.9-0.4
            c0.3,0,0.6,0.1,0.9,0.4s0.4,0.5,0.4,0.9s-0.1,0.6-0.4,0.9C34.4,12.4,34.1,12.5,33.8,12.5z M20,33.1c2.2,0,4.2-0.8,5.8-2.4
            c1.6-1.6,2.4-3.5,2.4-5.8s-0.8-4.2-2.4-5.8c-1.6-1.6-3.5-2.4-5.8-2.4s-4.2,0.8-5.8,2.4c-1.6,1.6-2.4,3.5-2.4,5.8s0.8,4.2,2.4,5.8
            C15.8,32.3,17.8,33.1,20,33.1z M20,15.6c2.6,0,4.8,0.9,6.6,2.8c1.8,1.8,2.7,4,2.7,6.6s-0.9,4.8-2.7,6.6c-1.8,1.8-4,2.8-6.6,2.8
            s-4.8-0.9-6.6-2.8c-1.8-1.8-2.7-4-2.7-6.6s0.9-4.8,2.7-6.6S17.4,15.6,20,15.6z M32.8,30h4.7V7.5h-7.9l-2.3-4.1
            c-0.1-0.2-0.3-0.4-0.7-0.6c-0.3-0.2-0.6-0.3-0.9-0.3H14.2c-0.2,0-0.5,0.1-0.9,0.3s-0.6,0.4-0.7,0.6l-2.3,4.1H2.5V30h4.7
            c-0.6-1.5-1-3.2-1-5c0-3.8,1.3-7,4-9.7s5.9-4,9.7-4s7,1.3,9.7,4s4,5.9,4,9.7C33.8,26.7,33.4,28.4,32.8,30z M20,37.5
            c3.4,0,6.4-1.2,8.8-3.7c2.4-2.4,3.7-5.4,3.7-8.8s-1.2-6.4-3.7-8.8s-5.4-3.7-8.8-3.7s-6.4,1.2-8.8,3.7S7.5,21.5,7.5,25
            s1.2,6.4,3.7,8.8C13.6,36.3,16.6,37.5,20,37.5z M31.1,5h6.4c0.7,0,1.2,0.2,1.7,0.7C39.7,6.2,40,6.8,40,7.5V30c0,0.7-0.3,1.2-0.8,1.7
            c-0.5,0.5-1.1,0.8-1.7,0.8H33c-1.3,2.3-3.1,4.1-5.4,5.5c-2.3,1.4-4.8,2-7.5,2s-5.2-0.7-7.5-2c-2.3-1.4-4.1-3.2-5.4-5.5H2.5
            c-0.7,0-1.2-0.3-1.7-0.8S0,30.7,0,30V7.5c0-0.7,0.3-1.3,0.8-1.8S1.8,5,2.5,5h6.4l1.5-2.8c0.3-0.6,0.9-1.1,1.6-1.5
            C12.8,0.2,13.5,0,14.2,0h11.7c0.7,0,1.4,0.2,2.1,0.6s1.3,0.9,1.6,1.5L31.1,5z"/>
    </symbol>
    <symbol id="AcceptTerms" viewBox="0 0 30 40">
        <path class="st0" d="M2.5,37.5h25v-25h-10v-10h-15V37.5z M18.8,11.2h7.5l-7.5-7.5V11.2z M19.3,0.7l10,10c0.5,0.5,0.7,1.1,0.7,1.8v25
            c0,0.7-0.2,1.3-0.7,1.8S28.2,40,27.5,40h-25c-0.7,0-1.3-0.2-1.8-0.7S0,38.2,0,37.5v-35c0-0.7,0.2-1.3,0.7-1.8S1.8,0,2.5,0h15
            C18.2,0,18.8,0.2,19.3,0.7z"/><path class="st0" d="M6.1,17.3h17.8c0.4,0,0.6,0.2,0.6,0.6s-0.2,0.6-0.6,0.6H6.1c-0.4,0-0.6-0.2-0.6-0.6S5.7,17.3,6.1,17.3z"/><path class="st0" d="M6.1,22.1h17.8c0.4,0,0.6,0.2,0.6,0.6s-0.2,0.6-0.6,0.6H6.1c-0.4,0-0.6-0.2-0.6-0.6S5.7,22.1,6.1,22.1z"/><path class="st0" d="M6.1,26.8h17.8c0.4,0,0.6,0.2,0.6,0.6S24.3,28,23.9,28H6.1c-0.4,0-0.6-0.2-0.6-0.6S5.7,26.8,6.1,26.8z"/><path class="st0" d="M6.1,31.6h17.8c0.4,0,0.6,0.2,0.6,0.6c0,0.4-0.2,0.6-0.6,0.6H6.1c-0.4,0-0.6-0.2-0.6-0.6
            C5.5,31.8,5.7,31.6,6.1,31.6z"/>
    </symbol>
    <symbol id="eyeButtonAnimation" data-name="Layer 1" viewBox="0 0 198.19 136.19">
        <path class="cls-1 eyelash-5" d="M385.39,378.5l14.08-20.11-10.06-7-14.08,20.11Z" transform="translate(-206.81 -326.94)"/><path class="cls-1 eyelash-1" d="M239.89,371.46L225.8,351.35l-10.06,7,14.08,20.11Z" transform="translate(-206.81 -326.94)"/><path class="cls-1 eyelash-3" d="M312.93,351.5V326.94H300.65V351.5h12.28Z" transform="translate(-206.81 -326.94)"/><path class="cls-1 eyelash-2" d="M273.64,356.09l-8-23.21-11.61,4,8,23.21Z" transform="translate(-206.81 -326.94)"/><path class="cls-1 eyelash-4" d="M349.8,360l8-23.21-11.61-4-8,23.21Z" transform="translate(-206.81 -326.94)"/><path class="cls-1 outereye" d="M305.91,364.93c-54.73,0-99.09,49.11-99.09,49.11s44.37,49.11,99.09,49.11S405,414,405,414,360.63,364.93,305.91,364.93Zm0,80.73A31.62,31.62,0,1,1,337.53,414,31.62,31.62,0,0,1,305.91,445.65Z" transform="translate(-206.81 -326.94)"/><circle class="cls-1 pupil" cx="99.09" cy="87.09" r="12.7"/><circle class="cls-1 pupil-large" cx="99.09" cy="87.09" r="36"/>
    </symbol>
</svg>